<svg width="16" height="16" fill="#ffffff" viewBox="0 0 24 24" xmlns="http://www.w3.org/2000/svg">
  <path d="m4.5 13.5 1.058 1.057 5.692-5.684V22.5h1.5V8.873l5.692 5.684L19.5 13.5 12 6l-7.5 7.5Z"></path>
  <path d="M4.5 6V3h15v3H21V3a1.5 1.5 0 0 0-1.5-1.5h-15A1.5 1.5 0 0 0 3 3v3h1.5Z"></path>
</svg>